^D:\EXPERTISE\MULTI-THREADING\ASSIGNMENT1V2\ASSIGNMENT1V2\DEBUG\ASSIGNMENT1V2.OBJ|D:\EXPERTISE\MULTI-THREADING\ASSIGNMENT1V2\ASSIGNMENT1V2\DEBUG\PCH.OBJ
D:\EXPERTISE\MULTI-THREADING\ASSIGNMENT1V2\DEBUG\ASSIGNMENT1V2.ILK
D:\EXPERTISE\MULTI-THREADING\ASSIGNMENT1V2\DEBUG\ASSIGNMENT1V2.EXE
D:\EXPERTISE\MULTI-THREADING\ASSIGNMENT1V2\DEBUG\ASSIGNMENT1V2.PDB
